[
  {
    "intitule": "Intégration et déploiement de l'API e-commerce",
    "type": "competence",
    "niveau": "hard",
    "enonce": {
      "texte": "<p>Vous êtes le lead développeur d'une équipe qui a développé une API e-commerce complète avec NestJS. L'API comprend les modules suivants : Auth, Users, Products, Orders, Cart, Payments, Reviews, Wishlist, Marketing, Admin. Votre responsable vous demande de préparer le déploiement final en production. Vous devez :</p><ul><li>Intégrer tous les modules dans une API cohérente</li><li>Tester l'API avec Postman/Insomnia</li><li>Documenter l'API</li><li>Déployer sur un cloud provider (ex: DigitalOcean, AWS, Scaleway)</li></ul><p>Répondez aux questions suivantes en justifiant vos choix.</p>",
      "images": [
        "schéma architecture API NestJS avec tous les modules et leurs relations",
        "diagramme de déploiement cloud avec VPS, base de données PostgreSQL et Redis"
      ]
    },
    "questions": [
      {
        "numero": 1,
        "texte": "Décrivez la structure modulaire que vous adopterez pour intégrer tous les modules (Auth, Users, Products, Orders, Cart, Payments, etc.) dans une API cohérente. Justifiez l'ordre d'importation des modules dans le `AppModule`.",
        "niveau": "hard",
        "reponse": "La structure modulaire sera organisée comme suit :\n- **SharedModule** : contient les composants partagés (database, config, common)\n- **AuthModule** : premier module importé car tous les autres en dépendent pour la sécurité\n- **UsersModule** : dépend d'AuthModule, fournit les données utilisateur\n- **ProductsModule** : indépendant mais utilisé par Cart et Orders\n- **CartModule** : dépend de ProductsModule et UsersModule\n- **OrdersModule** : dépend de CartModule, ProductsModule et UsersModule\n- **PaymentsModule** : dépend de OrdersModule\n- **ReviewsModule** : dépend de ProductsModule et OrdersModule (vérification d'achat)\n- **WishlistModule** : dépend de ProductsModule et UsersModule\n- **MarketingModule** : dépend de OrdersModule et UsersModule\n- **AdminModule** : dépend de tous les modules précédents\n\nL'ordre d'importation dans AppModule doit respecter les dépendances : SharedModule d'abord, puis AuthModule, UsersModule, ProductsModule, CartModule, OrdersModule, PaymentsModule, ReviewsModule, WishlistModule, MarketingModule, et enfin AdminModule.",
        "sousQuestions": [
          {
            "numero": "1.a",
            "texte": "Expliquez comment vous allez organiser les DTOs, Services, Controllers et Repositories pour maintenir la cohérence entre les modules.",
            "niveau": "medium",
            "reponse": "Pour maintenir la cohérence, j'adopterai une organisation par domaine :\n- Chaque module a son propre dossier avec la structure suivante : `dto/`, `entities/`, `controllers/`, `services/`, `repositories/`\n- Les DTOs sont partagés via un `shared/dto/` quand utilisés par plusieurs modules\n- Les Services sont injectables via `@Injectable()` et exportés via `exports: [ServiceName]`\n- Les Controllers sont organisés par version d'API (ex: `v1/`)\n- Les Repositories utilisent TypeORM et sont injectés dans les Services\n- Un `CommonModule` centralise les guards, interceptors, pipes, decorators\n- Les interfaces communes sont dans `common/interfaces/`\n- Les constantes et configurations sont dans `common/constants/` et `config/`"
          },
          {
            "numero": "1.b",
            "texte": "Identifiez les points d'intégration critiques où les modules interagissent. Proposez une stratégie pour gérer ces interactions (ex: événements, services partagés, appels HTTP internes).",
            "niveau": "hard",
            "reponse": "Points d'intégration critiques :\n1. **Auth → Users** : validation des tokens JWT et récupération du profil\n2. **Cart → Products** : vérification des prix et stocks\n3. **Orders → Cart** : transformation du panier en commande\n4. **Orders → Products** : décrémentation des stocks\n5. **Orders → Payments** : création de la transaction de paiement\n6. **Reviews → Orders** : vérification que l'utilisateur a acheté le produit\n7. **Marketing → Orders** : calcul des statistiques et application des coupons\n\nStratégie :\n- Utiliser les **services partagés** via l'injection de dépendances NestJS pour les interactions synchrones critiques\n- Implémenter **@nestjs/event-emitter** pour les interactions asynchrones (ex: envoi d'email après commande)\n- Pour les interactions nécessitant une découplage fort, utiliser **Bull avec Redis** pour les tâches asynchrones\n- Éviter les appels HTTP internes (latence) au profit des appels directs de services\n- Créer un **EventModule** central qui gère tous les événements cross-modules"
          }
        ]
      },
      {
        "numero": 2,
        "texte": "Décrivez votre stratégie de test end-to-end (E2E) avec Postman/Insomnia pour valider le flux complet : Authentification → Ajout au panier → Validation commande → Paiement. Quels sont les points de contrôle essentiels ?",
        "niveau": "hard",
        "reponse": "Stratégie de test E2E :\n\n**Préparation** :\n- Collection Postman avec variables d'environnement ({{baseUrl}}, {{token}}, {{orderId}})\n- Base de données de test isolée\n- Environnement de staging identique à la production\n\n**Flux complet à tester** :\n\n1. **Authentification** :\n   - POST /auth/register → vérifier code 201\n   - POST /auth/login → récupérer token JWT\n   - GET /auth/profile → vérifier token valide\n\n2. **Catalogue** :\n   - GET /products → vérifier pagination\n   - GET /products?category=... → tester filtres\n\n3. **Panier** :\n   - POST /cart/items (productId, quantity) → vérifier ajout\n   - GET /cart → vérifier total calculé\n   - PUT /cart/items/:id → modifier quantité\n   - DELETE /cart/items/:id → supprimer item\n\n4. **Validation commande** :\n   - POST /orders (adresse livraison, méthode paiement) → vérifier création\n   - GET /orders/:id → vérifier statut 'pending'\n\n5. **Paiement** :\n   - POST /payments/intent (orderId) → créer PaymentIntent Stripe\n   - Webhook Stripe simulé → confirmer paiement\n   - GET /orders/:id → vérifier statut 'paid'\n\n6. **Vérifications post-paiement** :\n   - GET /products/:id → vérifier stock décrémenté\n   - Email de confirmation (via mailcatcher en test)\n\n**Points de contrôle essentiels** :\n- Statuts HTTP (200, 201, 400, 401, 403, 404)\n- Structure des réponses JSON\n- Calculs de prix (sous-total, taxes, frais de port)\n- Déduction des stocks\n- Gestion des cas d'erreur (produit indisponible, coupon invalide)",
        "sousQuestions": [
          {
            "numero": "2.a",
            "texte": "Proposez une série de tests automatisés (scripts Postman ou Newman) pour valider les cas limites : panier vide, stock insuffisant, coupon expiré, paiement échoué.",
            "niveau": "hard",
            "reponse": "Tests automatisés pour cas limites :\n\n**Test 1 : Panier vide**\n```javascript\n// Script Postman\npm.test(\"Commande avec panier vide doit échouer\", () => {\n    pm.response.to.have.status(400);\n    const jsonData = pm.response.json();\n    pm.expect(jsonData.message).to.include(\"panier vide\");\n});\n```\n\n**Test 2 : Stock insuffisant**\n```javascript\n// Prérequis : produit avec stock=1\npm.test(\"Ajout quantite > stock doit échouer\", () => {\n    pm.response.to.have.status(409);\n    const jsonData = pm.response.json();\n    pm.expect(jsonData.message).to.include(\"Stock insuffisant\");\n    pm.expect(jsonData.availableStock).to.equal(1);\n});\n```\n\n**Test 3 : Coupon expiré**\n```javascript\npm.test(\"Coupon expiré doit être rejeté\", () => {\n    pm.response.to.have.status(400);\n    const jsonData = pm.response.json();\n    pm.expect(jsonData.message).to.include(\"expiré\");\n});\n```\n\n**Test 4 : Paiement échoué**\n```javascript\n// Simuler carte refusée\npm.test(\"Paiement refusé → commande reste pending\", () => {\n    pm.response.to.have.status(402);\n    // Vérifier que la commande n'a pas changé de statut\n    pm.sendRequest({\n        url: pm.environment.get(\"baseUrl\") + \"/orders/\" + orderId,\n        method: 'GET',\n        header: { 'Authorization': 'Bearer ' + token }\n    }, (err, res) => {\n        pm.expect(res.json().status).to.equal('pending');\n    });\n});\n```\n\n**Exécution avec Newman** :\n```bash\nnewman run collection.json -e environment.json --reporters cli,json --reporter-json-export test-results.json\n```"
          }
        ]
      },
      {
        "numero": 3,
        "texte": "Documentez l'API en utilisant Swagger/OpenAPI. Quels sont les éléments obligatoires à documenter et comment allez-vous structurer la documentation pour une API e-commerce complexe ?",
        "niveau": "medium",
        "reponse": "Documentation Swagger/OpenAPI structurée :\n\n**Configuration NestJS** :\n```typescript\n// main.ts\nconst config = new DocumentBuilder()\n  .setTitle('E-commerce API')\n  .setDescription('API complète pour plateforme e-commerce')\n  .setVersion('1.0')\n  .addBearerAuth()\n  .addTag('auth', 'Authentification')\n  .addTag('users', 'Gestion des utilisateurs')\n  .addTag('products', 'Catalogue produits')\n  .addTag('cart', 'Panier d\\'achat')\n  .addTag('orders', 'Commandes')\n  .addTag('payments', 'Paiements')\n  .addTag('reviews', 'Avis clients')\n  .addTag('wishlist', 'Listes de souhaits')\n  .addTag('marketing', 'Coupons et promotions')\n  .addTag('admin', 'Administration')\n  .build();\n```\n\n**Éléments obligatoires par endpoint** :\n```typescript\n@ApiTags('orders')\n@ApiBearerAuth()\n@Controller('orders')\nexport class OrdersController {\n  @Post()\n  @ApiOperation({ summary: 'Créer une commande', description: 'Transforme le panier en commande' })\n  @ApiResponse({ status: 201, description: 'Commande créée', type: OrderResponseDto })\n  @ApiResponse({ status: 400, description: 'Panier vide ou données invalides' })\n  @ApiResponse({ status: 401, description: 'Non authentifié' })\n  @ApiResponse({ status: 409, description: 'Stock insuffisant' })\n  async createOrder(@Body() createOrderDto: CreateOrderDto) {}\n}\n```\n\n**Documentation des DTOs** :\n```typescript\nexport class CreateOrderDto {\n  @ApiProperty({ example: 1, description: 'ID de l\\'adresse de livraison' })\n  shippingAddressId: number;\n  \n  @ApiProperty({ enum: ['stripe', 'paypal', 'bank_transfer'], example: 'stripe' })\n  paymentMethod: string;\n  \n  @ApiProperty({ required: false, example: 'PROMO10' })\n  couponCode?: string;\n}\n```\n\n**Structure de la documentation** :\n1. **Introduction** : description globale, base URL, authentification\n2. **Schémas de données** : tous les DTOs et Entités\n3. **Groupes de endpoints** organisés par domaine fonctionnel\n4. **Exemples de requêtes/réponses** pour chaque endpoint\n5. **Séquences d'utilisation** (ex: workflow complet de commande)\n6. **Codes d'erreur** standardisés\n7. **Rate limiting** : limites par endpoint\n8. **Versioning** : /api/v1/, /api/v2/",
        "sousQuestions": [
          {
            "numero": "3.a",
            "texte": "Dessinez la structure de la documentation Swagger pour le workflow complet : inscription → connexion → consultation produit → ajout panier → commande → paiement.",
            "niveau": "easy",
            "reponse": "Structure Swagger pour le workflow complet :\n\n```\n📁 API E-commerce v1.0\n├── 🔐 Authentification\n│   ├── POST /auth/register - Créer un compte\n│   ├── POST /auth/login - Se connecter (retourne JWT)\n│   └── GET /auth/profile - Voir mon profil\n│\n├── 📦 Catalogue\n│   ├── GET /products - Lister produits (paginer, filtrer, trier)\n│   ├── GET /products/{id} - Détail produit\n│   └── GET /categories - Lister catégories\n│\n├── 🛒 Panier\n│   ├── GET /cart - Voir mon panier\n│   ├── POST /cart/items - Ajouter produit\n│   ├── PUT /cart/items/{id} - Modifier quantité\n│   └── DELETE /cart/items/{id} - Retirer produit\n│\n├── 📝 Commandes\n│   ├── POST /orders - Créer commande (depuis panier)\n│   ├── GET /orders - Mes commandes\n│   ├── GET /orders/{id} - Détail commande\n│   └── DELETE /orders/{id}/cancel - Annuler commande\n│\n└── 💳 Paiements\n    ├── POST /payments/intent - Créer intention de paiement\n    └── POST /payments/webhook/stripe - Webhook confirmation\n```\n\n**Schéma de séquence dans Swagger** :\nOn peut ajouter une section `x-code-samples` pour montrer l'enchaînement :\n```yaml\nx-code-samples:\n  - lang: \"curl\"\n    source: |\n      # 1. Login\n      curl -X POST /auth/login -d '{\"email\":\"user@test.com\",\"password\":\"pass123\"}'\n      # 2. Ajout panier\n      curl -X POST /cart/items -H \"Authorization: Bearer TOKEN\" -d '{\"productId\":1,\"quantity\":2}'\n      # 3. Commande\n      curl -X POST /orders -H \"Authorization: Bearer TOKEN\" -d '{\"shippingAddressId\":1,\"paymentMethod\":\"stripe\"}'\n```"
          }
        ]
      },
      {
        "numero": 4,
        "texte": "Déployez l'API sur un VPS (DigitalOcean/Scaleway). Détaillez les étapes de déploiement : configuration du serveur, installation des dépendances, gestion des variables d'environnement, reverse proxy, SSL, et monitoring.",
        "niveau": "hard",
        "reponse": "Déploiement sur VPS Ubuntu 22.04 LTS :\n\n**1. Configuration du serveur** :\n```bash\n# Mise à jour et installation\nsudo apt update && sudo apt upgrade -y\nsudo apt install -y nodejs npm postgresql redis-server nginx git\n# Installation PM2\nsudo npm install -g pm2\n# Installation Docker (optionnel)\ncurl -fsSL https://get.docker.com | sh\n```\n\n**2. Déploiement de l'application** :\n```bash\n# Cloner et build\ngit clone https://github.com/your-repo/ecommerce-api.git\ncd ecommerce-api\nnpm ci --only=production\nnpm run build\n```\n\n**3. Variables d'environnement** :\n```bash\n# Créer .env.production\ncat > .env.production << EOF\nNODE_ENV=production\nPORT=3000\nDB_HOST=localhost\nDB_PORT=5432\nDB_USER=ecom_user\nDB_PASSWORD=secure_password\nDB_NAME=ecommerce_db\nJWT_SECRET=your_jwt_secret\nSTRIPE_SECRET_KEY=sk_live_...\nPAYPAL_CLIENT_ID=...\nREDIS_HOST=localhost\nEOF\n```\n\n**4. Configuration PostgreSQL** :\n```bash\nsudo -u postgres psql\nCREATE USER ecom_user WITH PASSWORD 'secure_password';\nCREATE DATABASE ecommerce_db OWNER ecom_user;\n\\q\n# Exécuter migrations\nnpm run migration:run\n```\n\n**5. Configuration Nginx (reverse proxy)** :\n```nginx\n# /etc/nginx/sites-available/ecommerce\nserver {\n    listen 80;\n    server_name api.moncommerce.com;\n    \n    location / {\n        proxy_pass http://localhost:3000;\n        proxy_http_version 1.1;\n        proxy_set_header Upgrade $http_upgrade;\n        proxy_set_header Connection 'upgrade';\n        proxy_set_header Host $host;\n        proxy_cache_bypass $http_upgrade;\n        proxy_set_header X-Real-IP $remote_addr;\n        proxy_set_header X-Forwarded-For $proxy_add_x_forwarded_for;\n    }\n}\n```\n\n**6. SSL avec Let's Encrypt** :\n```bash\nsudo apt install certbot python3-certbot-nginx\nsudo certbot --nginx -d api.moncommerce.com\n# Renouvellement automatique\nsudo systemctl status certbot.timer\n```\n\n**7. PM2 pour gestion processus** :\n```bash\n# Fichier ecosystem.config.js\nmodule.exports = {\n  apps: [{\n    name: 'ecommerce-api',\n    script: 'dist/main.js',\n    instances: 'max',\n    exec_mode: 'cluster',\n    env_production: {\n      NODE_ENV: 'production',\n      PORT: 3000\n    }\n  }]\n};\n\n# Démarrer\npm2 start ecosystem.config.js --env production\npm2 save\npm2 startup\n```\n\n**8. Monitoring** :\n- **Logs** : Winston avec transport vers fichiers (datadog/sentry)\n- **Performance** : New Relic ou PM2 Plus\n- **Health check** : Endpoint GET /health\n- **Alertes** : UptimeRobot ou Better Stack\n\n**9. CI/CD pipeline (GitHub Actions)** :\n```yaml\nname: Deploy\non:\n  push:\n    branches: [main]\njobs:\n  deploy:\n    runs-on: ubuntu-latest\n    steps:\n      - uses: actions/checkout@v2\n      - run: npm ci && npm run build\n      - name: Deploy to VPS\n        uses: appleboy/ssh-action@v0.1.5\n        with:\n          host: ${{ secrets.VPS_IP }}\n          script: |\n            cd /app/ecommerce-api\n            git pull\n            npm ci --only=production\n            npm run build\n            npm run migration:run\n            pm2 reload ecommerce-api\n```",
        "sousQuestions": [
          {
            "numero": "4.a",
            "texte": "Comparez les avantages et inconvénients du déploiement sur VPS (DigitalOcean) vs PaaS (Heroku, Render) pour cette API e-commerce.",
            "niveau": "medium",
            "reponse": "| Critère | VPS (DigitalOcean) | PaaS (Heroku/Render) |\n|---------|-------------------|----------------------|\n| **Coût** | $5-20/mois (fixe) | Gratuit à $25-50/mois (variable) |\n| **Contrôle** | Total (OS, serveur, sécurité) | Limitée par la plateforme |\n| **Scalabilité** | Manuelle (verticale/horizontale) | Automatique (configurable) |\n| **Configuration** | Complexe (Nginx, SSL, firewall) | Simple (Git push) |\n| **Maintenance** | Équipe responsable (mises à jour sécurité) | Plateforme gère l'infra |\n| **Base de données** | Autogérée (PostgreSQL manuel) | Add-on payant |\n| **Redis/Cache** | Installation manuelle | Add-on ou 3rd party |\n| **Tâches background** | PM2/Supervisor | Workers (add-ons) |\n| **Logging** | Configurable (Winston, ELK) | Console logs (+ add-ons) |\n| **Limites** | Capacité serveur | Temps de réponse, mémoire |\n| **Sécurité** | Responsabilité totale | Plateforme gère DDoS, etc. |\n\n**Recommandation pour e-commerce** :\n- **VPS** : meilleur contrôle, coût prévisible, mais nécessite expertise DevOps\n- **PaaS** : déploiement rapide, idéal pour MVP, mais peut devenir cher à grande échelle\n- **Choix mixte** : VPS + services managés (Cloud SQL, Redis Cloud) pour équilibrer"
          }
        ]
      }
    ]
  },
  {
    "intitule": "Documentation technique de l'API",
    "type": "ressource",
    "niveau": "medium",
    "enonce": {
      "texte": "<p>Vous devez rédiger la documentation technique complète de l'API e-commerce pour les développeurs frontend qui vont consommer vos endpoints. La documentation doit inclure l'authentification, les endpoints disponibles, les schémas de données, les codes d'erreur, et des exemples d'utilisation.</p>",
      "images": [
        "exemple de documentation Swagger UI avec tous les endpoints d'une API e-commerce",
        "schéma d'authentification JWT avec access token et refresh token"
      ]
    },
    "questions": [
      {
        "numero": 1,
        "texte": "Décrivez le système d'authentification JWT de l'API. Expliquez comment obtenir un token, le format attendu dans les requêtes, sa durée de vie, et le processus de rafraîchissement.",
        "niveau": "medium",
        "reponse": "**Système d'authentification JWT** :\n\n**Obtenir un token** :\n```http\nPOST /auth/login\nContent-Type: application/json\n\n{\n  \"email\": \"client@example.com\",\n  \"password\": \"userPassword123\"\n}\n\nRéponse :\n{\n  \"access_token\": \"eyJhbGciOiJIUzI1NiIsInR5cCI6IkpXVCJ9...\",\n  \"refresh_token\": \"eyJhbGciOiJIUzI1NiIsInR5cCI6IkpXVCJ9...\",\n  \"expires_in\": 900  // 15 minutes en secondes\n}\n```\n\n**Format dans les requêtes** :\n```http\nGET /users/profile\nAuthorization: Bearer eyJhbGciOiJIUzI1NiIsInR5cCI6IkpXVCJ9...\n```\n\n**Durée de vie** :\n- Access token : 15 minutes (court pour sécurité)\n- Refresh token : 7 jours (stocké en HttpOnly cookie ou localStorage)\n\n**Processus de rafraîchissement** :\n```http\nPOST /auth/refresh\nAuthorization: Bearer [refresh_token]\n\nRéponse :\n{\n  \"access_token\": \"nouveau_token...\",\n  \"expires_in\": 900\n}\n```\n\n**Token invalide** (codes d'erreur) :\n- 401 Unauthorized : Token manquant ou mal formé\n- 401 TokenExpiredError : Token expiré → utiliser /refresh\n- 403 Forbidden : Token valide mais rôle insuffisant",
        "sousQuestions": []
      },
      {
        "numero": 2,
        "texte": "Listez et décrivez les endpoints principaux du module Produits : recherche, filtrage, pagination, tri. Donnez des exemples complets de requêtes.",
        "niveau": "easy",
        "reponse": "**Endpoints du module Produits** :\n\n**1. Lister tous les produits (paginer, filtrer, trier)** :\n```http\nGET /products?page=2&limit=20&sort=price:asc&category=electronics&minPrice=10&maxPrice=100&search=phone\n```\n\n**2. Détail d'un produit** :\n```http\nGET /products/PROD-12345\n```\n\n**3. Catégories** :\n```http\nGET /categories\nGET /categories/electronics/products\n```\n\n**4. Admin - Créer produit** :\n```http\nPOST /products\nAuthorization: Bearer [admin_token]\nContent-Type: multipart/form-data\n\n{\n  \"name\": \"iPhone 15\",\n  \"description\": \"Dernier smartphone Apple\",\n  \"price\": 999.99,\n  \"stock\": 50,\n  \"categoryId\": 1,\n  \"images\": [fichiers]\n}\n```\n\n**Paramètres de requête détaillés** :\n| Paramètre | Type | Exemple | Description |\n|-----------|------|---------|-------------|\n| page | int | 1 | Numéro de page (défaut:1) |\n| limit | int | 20 | Éléments par page (max:100) |\n| sort | string | price:desc | Champ:direction |\n| search | string | iphone | Recherche texte |\n| category | string/array | electronics,phone | Filtrer par catégorie |\n| minPrice | float | 10 | Prix minimum |\n| maxPrice | float | 1000 | Prix maximum |\n| inStock | boolean | true | Produits en stock |\n| minRating | float | 4.0 | Note minimum |\n\n**Réponse paginée** :\n```json\n{\n  \"data\": [...],\n  \"meta\": {\n    \"total\": 150,\n    \"page\": 2,\n    \"lastPage\": 8,\n    \"limit\": 20\n  }\n}\n```",
        "sousQuestions": []
      },
      {
        "numero": 3,
        "texte": "Documentez le workflow complet de commande : du panier à la confirmation de paiement. Incluez les endpoints, les schémas de requête/réponse, et les codes d'erreur possibles.",
        "niveau": "hard",
        "reponse": "**Workflow complet de commande** :\n\n**Étape 1 : Gestion du panier**\n```http\n# Ajouter au panier\nPOST /cart/items\nAuthorization: Bearer [token]\n{\n  \"productId\": \"PROD-123\",\n  \"quantity\": 2,\n  \"variations\": {\n    \"size\": \"XL\",\n    \"color\": \"red\"\n  }\n}\n\n# Voir le panier\nGET /cart\nResponse: {\n  \"items\": [...],\n  \"subtotal\": 1999.98,\n  \"taxes\": 320.00,\n  \"shipping\": 0,\n  \"total\": 2319.98\n}\n```\n\n**Étape 2 : Création commande**\n```http\nPOST /orders\nAuthorization: Bearer [token]\n{\n  \"shippingAddressId\": 42,\n  \"billingAddressId\": 42,\n  \"paymentMethod\": \"stripe\",\n  \"couponCode\": \"WELCOME10\"\n}\n\nResponse (201 Created):\n{\n  \"id\": \"ORD-20241215-001\",\n  \"status\": \"pending\",\n  \"items\": [...],\n  \"subtotal\": 1999.98,\n  \"discount\": 199.99,\n  \"taxes\": 288.00,\n  \"shipping\": 0,\n  \"total\": 2088.00,\n  \"paymentIntentSecret\": \"pi_3..._secret_...\"\n}\n```\n\n**Étape 3 : Paiement**\n```http\n# Côté frontend : confirmer paiement Stripe\nstripe.confirmCardPayment(paymentIntentSecret, {\n  payment_method: { card: elements.getElement('card') }\n})\n\n# Webhook Stripe (côté backend)\nPOST /payments/webhook/stripe\n{\n  \"type\": \"payment_intent.succeeded\",\n  \"data\": {\n    \"object\": {\n      \"id\": \"pi_3...\",\n      \"amount\": 208800,\n      \"metadata\": { \"orderId\": \"ORD-20241215-001\" }\n    }\n  }\n}\n```\n\n**Codes d'erreur spécifiques** :\n| Code | Cause | Solution |\n|------|-------|----------|\n| 400 | Panier vide | Ajouter des produits |\n| 400 | Coupon invalide/exiré | Vérifier coupon |\n| 409 | Stock insuffisant | Réduire quantité |\n| 409 | Prix modifié | Revoir panier |\n| 402 | Paiement refusé | Utiliser autre carte |\n| 429 | Trop de tentatives | Attendre 1 minute |\n\n**Étape 4 : Suivi commande**\n```http\nGET /orders/ORD-20241215-001\nResponse: {\n  \"status\": \"paid\",\n  \"timeline\": [\n    { \"status\": \"pending\", \"timestamp\": \"2024-12-15T10:00:00Z\" },\n    { \"status\": \"paid\", \"timestamp\": \"2024-12-15T10:00:05Z\" },\n    { \"status\": \"shipped\", \"timestamp\": \"2024-12-16T08:00:00Z\" },\n    { \"status\": \"delivered\", \"timestamp\": \"2024-12-18T14:30:00Z\" }\n  ],\n  \"trackingNumber\": \"1Z999AA10123456784\"\n}\n```",
        "sousQuestions": []
      }
    ]
  }
]